.....
----------------------------------------------------------------------
Ran 5 tests in 0.002s

OK
Name               Stmts   Miss Branch BrPart  Cover   Missing
--------------------------------------------------------------
Diplomacy.py          85      0     48      0   100%
TestDiplomacy.py      31      0      0      0   100%
--------------------------------------------------------------
TOTAL                116      0     48      0   100%
